…
x2 <- rnorm(n, 4, 1)
y2 <- -3 + 2 * x2 + rnorm(n, 0, 2)

y <- c(y1, y2)
x <- c(x1, x2)
group <- rep(c("gr1", "gr2"), each = n)

d <- data.frame(x, y, group) 

d %>%
  group_by(group) %>% 
  do(head(., 5))
#> # A tibble: 10 x 3
#> # Groups:   group [2]
#>       x     y group
#>   <dbl> <dbl> <fct>
#> 1  2.79 19.8  gr1  
#> 2  4.28 25.4  gr1  
#> 3  5.08 30.6  gr1  
#> 4  1.65 12.3  gr1  
#> 5  4.43 25.5  gr1  
#> 6  4.49  4.81 gr2  
#> # … with 4 more rows
```
…
