Capitolo 8 Manipolazione dei dati | Data Science per psicologi
…
In questa seconda versione del (pseudo) codice R si capisce molto meglio ciò che vogliamo fare. Il data.frame me viene passato alla funzione wake_up(). La funzione wake_up() ha come argomento l’ora del giorno: time = "8:00". Una volta “svegliati” (wake up) dobbiamo scendere dal letto. Quindi l’output di wake_up() viene passato alla funzione get_out_of_bed() la quale ha come argomento side = "correct" perché vogliamo scendere dal letto dalla parte giusta. E così via.

8.2.2 Selezionare le colonne del data.frame con select()

Ritorniamo ora all’esempio precedente e supponiamo di volere selezionare le variabili name, vore e sleep_total dal data.frame msleep. Per fare ciò usiamo funzione select() che consente di selezionare un sottoinsieme di variabili in un dataset. Usando pipe scriviamo:

dt <- msleep %>%
  dplyr::select(name, vore, sleep_total)
dt
#> # A tibble: 83 x 3
#>   name                       vore  sleep_total
#>   <chr>                      <chr>       <dbl>
#> 1 Cheetah                    carni        12.1
#> 2 Owl monkey                 omni         17  
#> 3 Mountain beaver            herbi        14.4
#> 4 Greater short-tailed shrew omni         14.9
#> 5 Cow                        herbi         4  
#> 6 Three-toed sloth           herbi        14.4
#> # … with 77 more rows

laddove la sequenza di istruzioni precedenti significa che il data.frame dt è stato passato alla funzione select() contenuta nel pacchetto dplyr.

8.2.3 Filtrare le righe del data.frame con filter()

La funzione filter() consente di selezionare un sottoinsieme di
osservazioni in un dataset. Per esempio, possiamo selezionare tutte le
osservazioni nella variabile vore contrassegnate come carni in
questo modo (ovvero, tutti i carnivori):

dt %>%
  dplyr::filter(vore == "carni")
#> # A tibble: 19 x 3
#>   name                 vore  sleep_total
#>   <chr>                <chr>       <dbl>
#> 1 Cheetah              carni        12.1
#> 2 Northern fur seal    carni         8.7
#> 3 Dog                  carni        10.1
#> 4 Long-nosed armadillo carni        17.4
#> 5 Domestic cat         carni        12.5
#> 6 Pilot whale          carni         2.7
#> # … with 13 more rows

8.2.4 Aggiungere una colonna al data.frame con mutate()

Talvolta vogliamo creare una nuova variabile in uno stesso dataset ad
esempio sommando o dividendo due variabili, oppure calcolandone la
media. A questo scopo si usa la funzione mutate(). Per esempio, se
vogliamo esprimere i valori di sleep_total in minuti, moltiplichiamo
per 60:

dt %>% 
  mutate(sleep_minutes = sleep_total * 60) %>%
  dplyr::select(sleep_total, sleep_minutes)
#> # A tibble: 83 x 2
#>   sleep_total sleep_minutes
#>         <dbl>         <dbl>
#> 1        12.1           726
#> 2        17            1020
#> 3        14.4           864
#> 4        14.9           894
#> 5         4             240
#> 6        14.4           864
#> # … with 77 more rows

8.2.5 Ordinare i dati con arrange()

La funzione arrange() serve a ordinare i dati in base ai valori di una
o più variabili. Per esempio, possiamo ordinare la variabile
sleep_total dal valore più alto al più basso in questo modo:

dt %>% 
  arrange(desc(sleep_total))
#> # A tibble: 83 x 3
#>   name                   vore    sleep_total
#>   <chr>                  <chr>         <dbl>
#> 1 Little brown bat       insecti        19.9
#> 2 Big brown bat          insecti        19.7
#> 3 Thick-tailed opposum   carni          19.4
#> 4 Giant armadillo        insecti        18.1
#> 5 North American Opossum omni           18  
#> 6 Long-nosed armadillo   carni          17.4
#> # … with 77 more rows
…
